Future & reserve trees designation — futurereserve • LoggingLab
…
inventory <- selected(inventory, scenario = "manual", fuel = "0",
diversification = TRUE, specieslax = FALSE, objectivelax = TRUE,
topography = DTMParacou,
advancedloggingparameters = loggingparameters(), VO = 125,
 HVinit = HVinit)$inventory
#> As the harvestable volume (= 182.4m^3)
#>                 was higher (by 57.4m^3) than the objective volume,
#>                 the Minimum Falling Diameters (MinFD) of the 1st and 2nd economic ranks species were increased to UpMinFD.
#>                 Some trees with DBH lower than the UpMinFD were however selected to ensure that the objective
#>                 volume was reached.

futurereserve(inventory, SpeciesCriteria)
#> # A tibble: 3,525 × 57
#>    Forest  Plot  PlotArea SubPlot idTree Protocole Xfield Yfield UTMZone   Lat
#>    <chr>   <chr>    <dbl>   <int>  <int> <chr>      <dbl>  <dbl>   <int> <dbl>
#>  1 Paracou 6         6.25       4 103939 Guyafor    128.     34       22  5.27
#>  2 Paracou 6         6.25       2 102086 Guyafor    176.    182.      22  5.27
#>  3 Paracou 6         6.25       1 101436 Guyafor    108.    170       22  5.27
#>  4 Paracou 6         6.25       1 101413 Guyafor    106.    140.      22  5.27
#>  5 Paracou 6         6.25       2 102507 Guyafor    234.    202.      22  5.27
#>  6 Paracou 6         6.25       2 102520 Guyafor    241     181       22  5.27
#>  7 Paracou 6         6.25       2 102238 Guyafor    193     146       22  5.27
#>  8 Paracou 6         6.25       2 101998 Guyafor    172.    182.      22  5.27
#>  9 Paracou 6         6.25       4 104224 Guyafor    182.     40       22  5.27
#> 10 Paracou 6         6.25       3 103195 Guyafor     58.5    91       22  5.27
#> # ℹ 3,515 more rows
#> # ℹ 47 more variables: Lon <dbl>, Family.x <chr>, ScientificName <chr>,
#> #   Genus <chr>, Species <chr>, BotaSource <chr>, BotaCertainty <dbl>,
#> #   VernName <chr>, CensusYear <int>, CensusDateCertainty <lgl>,
#> #   CodeAlive <lgl>, MeasCode <int>, Circ <dbl>, CircCorr <dbl>,
#> #   CorrCode <chr>, DBH <dbl>, TreesIn <chr>, Xutm <dbl>, Yutm <dbl>,
#> #   TreeHarvestableVolume <dbl>, TrunkHeight <dbl>, TreeHeight <dbl>, …
…
