Summary of the outputs of the loggingsimulation function — loggingsummary1 • Maria
…
#> scenario : manual 
#> objective : 20 m3/ha
#> fuel : 2 
#> diversification : TRUE 
#> winching : 2 
#> directionalfelling : 2 
#> specieslax : FALSE 
#> objectivelax : TRUE 
#> Objective volume : 125 m3
#> Initial harvestable volume : 211.7 m3,  33.9 m3/ha
#> Timber logged volume : 122.6 m3,  19.6 m3/ha
#> No hollow timber logged volume : 119.9 m3,  19.2 m3/ha
#> Fuel wood volume : 231.7 m3,  37.1 m3/ha
#> Damages volume : 213.6 m3,  34.2 m3/ha
#> # A tibble: 3,539 x 58
#> # Rowwise: 
#>    Forest  Plot  PlotArea SubPlot idTree Protocole Xfield Yfield    Xutm    Yutm
#>    <chr>   <chr>    <dbl>   <int>  <int> <chr>      <dbl>  <dbl>   <dbl>   <dbl>
#>  1 Paracou 6         6.25       4 104455 Guyafor    215     69.5 286645. 583055.
#>  2 Paracou 6         6.25       4 103939 Guyafor    128.    34   286570. 582999.
#>  3 Paracou 6         6.25       2 102249 Guyafor    202    134.  286617  583114.
#>  4 Paracou 6         6.25       2 102086 Guyafor    176.   182.  286580. 583155.
#>  5 Paracou 6         6.25       1 100904 Guyafor     36    170   286449. 583110.
#>  6 Paracou 6         6.25       3 103694 Guyafor    122    116.  286545. 583078.
#>  7 Paracou 6         6.25       1 101090 Guyafor     67.5  138   286487. 583087.
#>  8 Paracou 6         6.25       1 101193 Guyafor     75.5  208.  286478. 583156.
#>  9 Paracou 6         6.25       1 100833 Guyafor     25    238.  286422. 583175.
#> 10 Paracou 6         6.25       1 101474 Guyafor    106.   238.  286500. 583194.
#> # ... with 3,529 more rows, and 48 more variables: UTMZone <int>, Lat <dbl>,
#> #   Lon <dbl>, Family <chr>, ScientificName <chr>, Genus <chr>, Species <chr>,
#> #   BotaSource <chr>, BotaCertainty <dbl>, VernName <chr>, CensusYear <int>,
#> #   CensusDateCertainty <lgl>, CodeAlive <lgl>, MeasCode <int>, Circ <dbl>,
#> #   CircCorr <dbl>, CorrCode <chr>, DBH <dbl>, TreeHarvestableVolume <dbl>,
#> #   TrunkHeight <dbl>, TreeHeight <dbl>, CrownHeight <dbl>, Taxo <chr>,
#> #   CrownDiameter <dbl>, WoodDensity <dbl>, levelWD <chr>, AGB <dbl>,
#> #   ONFName <chr>, Commercial <fct>, MinFD <dbl>, UpMinFD <dbl>, MaxFD <dbl>,
#> #   Aggregative <lgl>, DistCriteria <lgl>, Slope <dbl>, SlopeCriteria <lgl>,
…
